com\demo\springboot\service\AverageService.class
com\demo\springboot\Application.class
com\demo\springboot\rest\Controler.class
com\demo\springboot\domain\Dto.class
com\demo\springboot\service\ServiceImpl.class
