C:\Users\Patryk\Desktop\IntelliJ projekty\kolos\kolos\src\main\java\com\demo\springboot\domain\Dto.java
C:\Users\Patryk\Desktop\IntelliJ projekty\kolos\kolos\src\main\java\com\demo\springboot\service\serwisImps.java
C:\Users\Patryk\Desktop\IntelliJ projekty\kolos\kolos\src\main\java\com\demo\springboot\Application.java
C:\Users\Patryk\Desktop\IntelliJ projekty\kolos\kolos\src\main\java\com\demo\springboot\rest\Controler.java
C:\Users\Patryk\Desktop\IntelliJ projekty\kolos\kolos\src\main\java\com\demo\springboot\service\Serwis.java
